%YAML 1.1
%TAG !u! tag:unity3d.com,2011:
--- !u!1045 &1
EditorBuildSettings:
  m_ObjectHideFlags: 0
  serializedVersion: 2
  m_Scenes:
  - enabled: 1
    path: Assets/Scene/Menu.unity
  - enabled: 1
    path: Assets/Scene/TestScene.unity
  - enabled: 1
    path: Assets/Scene/LevelSelect.unity
  - enabled: 1
    path: Assets/Scene/Level_1_Chandler.unity
